%YAML 1.1
%TAG !u! tag:unity3d.com,2011:
--- !u!114 &11400000
MonoBehaviour:
  m_ObjectHideFlags: 0
  m_CorrespondingSourceObject: {fileID: 0}
  m_PrefabInstance: {fileID: 0}
  m_PrefabAsset: {fileID: 0}
  m_GameObject: {fileID: 0}
  m_Enabled: 1
  m_EditorHideFlags: 0
  m_Script: {fileID: 11500000, guid: 5fdce35d04c69f64796e1f791880c2d4, type: 3}
  m_Name: AIFollowWaypointsSettings 1
  m_EditorClassIdentifier: 
  waypoints:
  - {fileID: 4393500875461166586, guid: 17401d3d9859fad4e855477242e0974e, type: 3}
  - {fileID: 911273072421635963, guid: 79ad92c7edb91bb43b7c1529b547ac47, type: 3}
  - {fileID: 4742407181741945821, guid: 35ad223dde55bc241af734373994afb7, type: 3}
  minMoveSpeed: 0.5
  maxMoveSpeed: 0.7
  minIdleTime: 1
  maxIdleTime: 3
  chanceOfIdle: 30
